…
$ ./datacheck
┌─────────┬─────────────────┬────────────┐
│ zipcode │      place      │   state    │
│  int32  │     varchar     │  varchar   │
├─────────┼─────────────────┼────────────┤
│    8037 │ Hammonton       │ New Jersey │
│    8201 │ Absecon         │ New Jersey │
│    8203 │ Brigantine      │ New Jersey │
│    8205 │ Absecon         │ New Jersey │
│    8213 │ Cologne         │ New Jersey │
│    8215 │ Egg Harbor City │ New Jersey │
│    8217 │ Elwood          │ New Jersey │
│    8220 │ Leeds Point     │ New Jersey │
│    8221 │ Linwood         │ New Jersey │
│    8225 │ Northfield      │ New Jersey │
│      ·  │     ·           │    ·       │
│      ·  │     ·           │    ·       │
│      ·  │     ·           │    ·       │
│   14418 │ Branchport      │ New York   │
│   14441 │ Dresden         │ New York   │
│   14478 │ Keuka Park      │ New York   │
│   14507 │ Middlesex       │ New York   │
│   14527 │ Penn Yan        │ New York   │
│   14544 │ Rushville       │ New York   │
│   14837 │ Dundee          │ New York   │
│   14842 │ Himrod          │ New York   │
│   14857 │ Lakemont        │ New York   │
│   14878 │ Rock Stream     │ New York   │
├─────────┴─────────────────┴────────────┤
│ 2877 rows (20 shown)         3 columns │
└────────────────────────────────────────┘
```
…
